{
  app: {
    closeStrategy: 2,
    showShutdownTip: false,
    mode: 'ow',
    autoStart: {
      enabled: true,
    },
  },
  plugin: {
    node: {
      setting: {
        registry: 'https://registry.npmmirror.com',
        yarnRegistry: null,
      },
    },
    pip: {
      enabled: null,
    },
    overwall: {
      enabled: true,
      targets: {
        '*book118.com': true,
        '*google.com': true,
        '*youtube.com': true,
        '*openai.com': true,
        '*bing0.com': true,
        '*bing.com': null,
        '*cloudflare.com': null,
      },
      server: {
        'testv.baldfly.xyz': {
          type: 'path',
          path: '96291',
        },
      },
    },
  },
  server: {
    setting: {
      verifySsl: false,
    },
    sniList: {},
  },
}